Communication and Social Networks - Calculating Network Statistics
…
Calculate the closeness centrality and betweenness centrality of the ffe_elite network; add them to a table that shows the vertex.names, birthdate, and both kinds of centrality for each node, sorted by closeness centrality (descending).

# A tibble: 28 × 28
   birthdate birthplace cabinet clubs eliteprom elitevote   ena enayear
       <dbl>      <dbl>   <dbl> <dbl>     <dbl>     <dbl> <dbl>   <dbl>
 1      1935          2       2     3         1        52     2      NA
 2      1929          2       2     3         1        34     1    1955
 3      1928          1       1     2         1        39     1    1953
 4      1950          2       1     0         1        23     1    1975
 5      1934          1       1     3         1        36     1    1961
 6      1924          1       2     1         1        45     2      NA
 7      1935          1       2     3         1        23     2      NA
 8      1943          2       1     1         1        31     1    1969
 9      1931          1       2     3         1        34     2      NA
10      1911          2       2     0         0        13     2      NA
# ℹ 18 more rows
# ℹ 20 more variables: fathers.lev <dbl>, finance.min <dbl>, igyear <dbl>,
#   inspec.gen <dbl>, masons <dbl>, na <lgl>, normal.sch <dbl>, party <dbl>,
#   polytech <dbl>, polyyear <dbl>, prestige <dbl>, religion <dbl>,
#   sciencepoly <dbl>, socialreg <dbl>, topboards <dbl>, university <dbl>,
#   vertex.names <chr>, zipcode <dbl>, closeness <dbl>, betweenness <dbl>
…
